CPLN 675: Spatial Predictive Modeling for Classification
…
What if I wasnt so keen on steep slopes being related in a linear way to our outcome? Maybe I can reclassify them into what we call a dummy variable (aka a fixed effect) - what if we call some new levels high slope, medium slope and low slope. I can do this with a case_when for multiple categories. I could also use ifelse to create two categories. Check out these examples:

preserve_and_forests_and_parks_fishnet %>%
  mutate(slope_category_2 = ifelse(slope >= 6, "high slope", "low slope"),
         slope_category_3 = case_when(slope < 3 ~ "low slope",
                                      slope >= 3 & slope <6 ~ "medium slope",
                                      slope >= 6 ~ "high slope"))

## Simple feature collection with 13339 features and 15 fields
## Geometry type: POLYGON
## Dimension:     XY
## Bounding box:  xmin: 1183997 ymin: 131792 xmax: 2817775 ymax: 1080121
## Projected CRS: NAD83 / Pennsylvania South (ftUS)
## # A tibble: 13,339 x 16
##       Id n_parks preserve elevation slope dSteepSlop landCover dUrban distRivers
##  * <int>   <int>    <int>     <dbl> <dbl>      <dbl> <fct>      <dbl>      <dbl>
##  1    27       1        0       198  1.56      14834 5           1102       2640
##  2    34       1        0       402  6.91       1694 4            533       5740
##  3    37       1        0       167  4.22       1808 4            863        721
##  4    48       2        0       238  4.54      13293 5           2325       4794
##  5    56       4        0       265  3.14       8798 5            377       2128
##  6    57       2        1       256  3.26      10796 5           1032       1958
##  7    63       1        0       197  3.15       6512 5           5093       3575
##  8    71       1        1       110  3.11       3964 5           1343        707
##  9    75       1        0       146  2.73       4196 5            802       1779
## 10    77       1        0       142  2.11       9757 5           2647       1932
## # ... with 13,329 more rows, and 7 more variables: allPredictions <dbl>,
## #   DistrictNa <chr>, geometry <POLYGON [US_survey_foot]>,
## #   area [US_survey_foot^2], parks_sqmi <dbl>, slope_category_2 <chr>,
## #   slope_category_3 <chr>
…
